Workflow • geosalz.phreeqc
…
samples_tidy <- geosalz.phreeqc::tidy_samples(samples) %>%
  geosalz.phreeqc::convert_to_numeric_lab_values()

samples_tidy
#> # A tibble: 117 × 7
#>    solution_id solution units parameter value  outOfLimit numericValue
#>          <int> <chr>    <chr> <chr>     <chr>  <chr>             <dbl>
#>  1           1 30a9e918 ppm   temp      12.5   ""                12.5 
#>  2           1 30a9e918 ppm   pH        7.79   ""                 7.79
#>  3           1 30a9e918 ppm   Fe(+2)    0.98   ""                 0.98
#>  4           1 30a9e918 ppm   Mn        0.37   ""                 0.37
#>  5           1 30a9e918 ppm   C(4)      177.00 ""               177   
#>  6           1 30a9e918 ppm   Ca        101.00 ""               101   
#>  7           1 30a9e918 ppm   Mg        7.26   ""                 7.26
#>  8           1 30a9e918 ppm   Na        16.30  ""                16.3 
#>  9           1 30a9e918 ppm   K         1.32   ""                 1.32
#> 10           1 30a9e918 ppm   N(-3)     0.10   ""                 0.1 
#> # … with 107 more rows
…
